{
  "entrypoint": "index.html",
  "shell": "src/converse-app.html",
  "fragments": [
    "src/converse-home.html",
    "src/converse-things.html",
    "src/converse-interactions.html",
    "src/converse-developer.html",
    "src/converse-donation.html",
    "src/converse-profile.html",
    "src/converse-error404.html"
  ],
  "sources": [
    "src/**/*",
    "images/**/*",
    "bower.json"
  ],
  "extraDependencies": [
    "manifest.json",
    "bower_components/webcomponentsjs/*.js"
  ],
  "lint": {
    "rules": ["polymer-2-hybrid"]
  },
  "builds": [
    {
      "preset": "es6-unbundled",
      "basePath": "es6-unbundled"
    },
    {
      "preset": "es6-bundled",
      "basePath": "es6-bundled"
    },
    {
      "preset": "es5-bundled",
      "basePath": "es5-bundled"
    }
  ]
}
